^C:\USERS\ЕВГЕНИЙ\DOCUMENTS\VISUAL STUDIO 2013\PROJECTS\QUEUEEXAMPLES\FIREANDFORGET\SERVER\SERVER\DEBUG\MAIN.OBJ
/OUT:"C:\USERS\ЕВГЕНИЙ\DOCUMENTS\VISUAL STUDIO 2013\PROJECTS\QUEUEEXAMPLES\FIREANDFORGET\SERVER\DEBUG\CONSUMER.EXE" /INCREMENTAL /NOLOGO /LIBPATH:"C:\Program Files (x86)\ZeroMQ 4.0.4\lib\\" "libzmq-v120-mt-gd-4_0_4.lib" kernel32.lib user32.lib gdi32.lib winspool.lib comdlg32.lib advapi32.lib shell32.lib ole32.lib oleaut32.lib uuid.lib odbc32.lib odbccp32.lib /MANIFEST /MANIFESTUAC:"level='asInvoker' uiAccess='false'" /manifest:embed /DEBUG /PDB:"C:\USERS\ЕВГЕНИЙ\DOCUMENTS\VISUAL STUDIO 2013\PROJECTS\QUEUEEXAMPLES\FIREANDFORGET\SERVER\DEBUG\CONSUMER.PDB" /SUBSYSTEM:CONSOLE /TLBID:1 /DYNAMICBASE /NXCOMPAT /IMPLIB:"C:\USERS\ЕВГЕНИЙ\DOCUMENTS\VISUAL STUDIO 2013\PROJECTS\QUEUEEXAMPLES\FIREANDFORGET\SERVER\DEBUG\CONSUMER.LIB" /MACHINE:X86 DEBUG\MAIN.OBJ
^C:\USERS\ЕВГЕНИЙ\DOCUMENTS\VISUAL STUDIO 2013\PROJECTS\QUEUEEXAMPLES\FIREANDFORGET\CONSUMER\SERVER\DEBUG\MAIN.OBJ
/OUT:"C:\USERS\ЕВГЕНИЙ\DOCUMENTS\VISUAL STUDIO 2013\PROJECTS\QUEUEEXAMPLES\FIREANDFORGET\CONSUMER\DEBUG\CONSUMER.EXE" /INCREMENTAL /NOLOGO /LIBPATH:"C:\Program Files (x86)\ZeroMQ 4.0.4\lib\\" "libzmq-v120-mt-gd-4_0_4.lib" kernel32.lib user32.lib gdi32.lib winspool.lib comdlg32.lib advapi32.lib shell32.lib ole32.lib oleaut32.lib uuid.lib odbc32.lib odbccp32.lib /MANIFEST /MANIFESTUAC:"level='asInvoker' uiAccess='false'" /manifest:embed /DEBUG /PDB:"C:\USERS\ЕВГЕНИЙ\DOCUMENTS\VISUAL STUDIO 2013\PROJECTS\QUEUEEXAMPLES\FIREANDFORGET\CONSUMER\DEBUG\CONSUMER.PDB" /SUBSYSTEM:CONSOLE /TLBID:1 /DYNAMICBASE /NXCOMPAT /IMPLIB:"C:\USERS\ЕВГЕНИЙ\DOCUMENTS\VISUAL STUDIO 2013\PROJECTS\QUEUEEXAMPLES\FIREANDFORGET\CONSUMER\DEBUG\CONSUMER.LIB" /MACHINE:X86 DEBUG\MAIN.OBJ
