^C:\USERS\ЕВГЕНИЙ\DOCUMENTS\VISUAL STUDIO 2013\PROJECTS\QUEUEEXAMPLES\FIREANDFORGET\PRODUCER\CLIENT\MAIN.CPP
C:\USERS\евгений\DOCUMENTS\VISUAL STUDIO 2013\PROJECTS\QUEUEEXAMPLES\FIREANDFORGET\PRODUCER\CLIENT\DEBUG\VC120.PDB
C:\USERS\евгений\DOCUMENTS\VISUAL STUDIO 2013\PROJECTS\QUEUEEXAMPLES\FIREANDFORGET\PRODUCER\CLIENT\DEBUG\VC120.IDB
C:\USERS\Евгений\DOCUMENTS\VISUAL STUDIO 2013\PROJECTS\QUEUEEXAMPLES\FIREANDFORGET\PRODUCER\CLIENT\DEBUG\MAIN.OBJ
